[start]
20180109	1100	20300101	1100	50700	999999	0	0	0	1	0	0	0	0	10000	0	0	0	0	0	0	0	0	0	
20170101	0	20300101	0	80200	999999	0	0	2	3	0	30	0	0	0	0	7500	0	2000	0	500	0	0	0		0	30	0	0	0	0	7500	0	2000	0	500	0	0	0		0	30	0	0	0	0	7500	0	2000	0	500	0	0	0	
20170101	0	20300101	0	80200	999999	0	0	3	3	0	75	0	0	0	0	7500	0	2000	0	500	0	0	0		0	75	0	0	0	0	7500	0	2000	0	500	0	0	0		0	75	0	0	0	0	7500	0	2000	0	500	0	0	0	
20201009	1100	20300101	1100	90900	999999	0	0	1	4	-1	0	0	0	0	0	0	0	0	0	0	0	0	0		-1	0	0	0	0	0	0	0	0	0	0	0	0	0		-1	0	0	0	0	0	0	0	0	0	0	0	0	0		525	0	0	0	0	0	0	0	0	0	10000	0	0	0	Get an Uber Rare Cat!! 100% Uber drop Rate in the PLATINUM CAPSULES!
20201113	1100	20300101	1100	91000	999999	0	0	1	4	-1	0	0	0	0	0	0	0	0	0	0	0	0	0		-1	0	0	0	0	0	0	0	0	0	0	0	0	0		-1	0	0	0	0	0	0	0	0	0	0	0	0	0		543	0	0	0	0	0	0	0	0	0	10000	0	0	0	Get an Uber Rare Cat!! 100% Uber drop Rate in the PLATINUM CAPSULES!
20210212	000	20300101	1100	100200	999999	0	0	1	4	-1	0	0	0	0	0	0	0	0	0	0	0	0	0		-1	0	0	0	0	0	0	0	0	0	0	0	0	0		-1	0	0	0	0	0	0	0	0	0	0	0	0	0		556	0	0	0	0	0	0	0	0	0	10000	0	0	0	Get an Uber Rare Cat!! 100% Uber drop Rate in the PLATINUM CAPSULES!
20210503	1100	20300101	000	100400	999999	0	0	0	3	-1	0	0	0	0	0	0	0	0	0	0	0	0	0		-1	0	0	0	0	0	0	0	0	0	0	0	0	0		62	0	0	0	0	0	7400	0	2100	0	500	0	0	0	【Limited】 Collect Li'l Cats only during this event!
20210416	1100	20300101	000	100400	999999	0	0	0	4	-1	0	0	0	0	0	0	0	0	0	0	0	0	0		-1	0	0	0	0	0	0	0	0	0	0	0	0	0		-1	0	0	0	0	0	0	0	0	0	0	0	0	0		63	0	300	0	0	0	5100	0	3500	0	1400	0	0	0	【Limited Event】 Special chance for XP and Catamins!
20210507	1100	20300101	1100	100400	999999	0	0	1	4	-1	0	0	0	0	0	0	0	0	0	0	0	0	0		-1	0	0	0	0	0	0	0	0	0	0	0	0	0		-1	0	0	0	0	0	0	0	0	0	0	0	0	0		577	0	0	0	0	0	0	0	0	0	10000	0	0	0	Get an Uber Rare Cat!! 100% Uber drop Rate in the PLATINUM CAPSULES!
20210709	0	20300101	1100	100600	999999	0	0	1	4	-1	0	0	0	0	0	0	0	0	0	0	0	0	0		-1	0	0	0	0	0	0	0	0	0	0	0	0	0		-1	0	0	0	0	0	0	0	0	0	0	0	0	0		592	0	0	0	0	0	0	0	0	0	10000	0	0	0	Get an Uber Rare Cat!! 100% Uber drop Rate in the PLATINUM CAPSULES!	0	0	0	4	fr	Obtiens un ultra rare ! 100 % de chances avec les Chapsules platine !	it	Ottieni un gatto ultra raro! 100% possibilità di Ultra nelle CAPSULE PLATINO!	de	Hol dir eine megaseltene Katze!! 100-%-Chance in den PLATINKAPSELN!	es	¡Gana un gato megarraro! Garantizado en las BOLAS DE PLATINO.
20210827	1100	20300101	1100	100700	999999	0	0	1	4	-1	0	0	0	0	0	0	0	0	0	0	0	0	0		-1	0	0	0	0	0	0	0	0	0	0	0	0	0		-1	0	0	0	0	0	0	0	0	0	0	0	0	0		603	0	0	0	0	0	0	0	0	0	10000	0	0	0	Get an Uber Rare Cat!! 100% Uber drop Rate in the PLATINUM CAPSULES!	0	0	0	4	fr	Obtiens un ultra rare ! 100 % de chances avec les Chapsules platine !	it	Ottieni un gatto ultra raro! 100% possibilità di Ultra nelle CAPSULE PLATINO!	de	Hol dir eine megaseltene Katze!! 100-%-Chance in den PLATINKAPSELN!	es	¡Gana un gato megarraro! Garantizado en las BOLAS DE PLATINO.
20210830	1100	20210921	0	100800	999999	0	0	4	1	14	0	0	0	1000	0	5000	0	2000	0	500	1	1500	0	【Summer Break Cats】 Catch items & limited Cats using Legend Nets, thru 9/20!	Draw 	 more times from this Event to earn Kabuto Cat or Kuwagata Cat!	4	fr	【Chats de vacances d'été】 Attrape obj. et Chats au filet légend. jusqu'au 20/9 !	ENcore 	 ouvertures dans cet événement pour gagner le Chat Kabuto ou le Chat Kuwagata !	it	【Gatti estivi】 Oggetti e Gatti limitati con le reti leggendarie, fino al 20/09!	Sorteggia altre 	 volte da questo evento per ottenere Gatto Kabuto o Gatto Kuwagata!	de	(Sommerferienkatzen) Bis 20.9.: Gegenst. & limit. Katzen mit Legendennetzen!	Ziehe 	 Mal öfter aus diesem Event, um Kabutokatze oder Kuwagatakatze zu erhalten!	es	¡Gatos Estivales! ¡Pesca objetos y unidades con redes legendarias hasta el 20/9!	Abre 	 bolas más en este evento para llevarte el Gato Kabuto o el Gato Kuwagata.
20210830	1100	20210920	1100	100800	999999	0	0	1	2	-1	0	0	0	0	0	0	0	0	0	0	0	0	0		607	150	0	0	0	0	7000	0	2500	0	500	0	0	0	New heroes appear for summer fun! ★ Tap banner for info!	0	4	fr	Nouvelle dame de l’été à découvrir ! ★ Touche pour plus d’infos !	it	Ci sono novità tra le Ragazze estive! ★ Tocca il banner!	de	Die Sommermädchen haben ein neues Mitglied! ★ Tippe auf das Banner!	es	¡Nuevo miembro de las chicas de verano! ★ ¡Toca para saber más!
20210906	1100	20210920	1100	100800	999999	0	0	1	2	-1	0	0	0	0	0	0	0	0	0	0	0	0	0		607	150	0	4216	0	0	7000	0	2500	0	500	0	0	0	New heroes appear for summer fun! ★ Tap banner for info!	0	4	fr	Nouvelle dame de l’été à découvrir ! ★ Touche pour plus d’infos !	it	Ci sono novità tra le Ragazze estive! ★ Tocca il banner!	de	Die Sommermädchen haben ein neues Mitglied! ★ Tippe auf das Banner!	es	¡Nuevo miembro de las chicas de verano! ★ ¡Toca para saber más!
20210913	1100	20210920	1100	100800	999999	0	0	1	3	-1	0	0	0	0	0	0	0	0	0	0	0	0	0		-1	0	0	0	0	0	0	0	0	0	0	0	0	0		486	150	0	4216	0	0	7000	0	2500	0	500	0	0	0	Survive! Mola Mola! Collab Capsules! ★ Tap the banner for info!	0	0	4	fr	Survive! Mola Mola! Collab Capsules! ★ Tap the banner for info!	it	Survive! Mola Mola! Collab Capsules! ★ Tap the banner for info!	de	Survive! Mola Mola! Collab Capsules! ★ Tap the banner for info!	es	Survive! Mola Mola! Collab Capsules! ★ Tap the banner for info!
20210915	1100	20210917	1100	100800	999999	0	0	1	1	434	150	0	4216	0	0	6970	0	2500	0	500	0	30	0	Ancient dragons of unmatched might! ★ Tap banner for info!	4	fr	Dragons anciens à la puissance inégalée ! ★ Touche pour plus d’infos !	it	Draghi antichi dalla potenza ineguagliabile! ★ Tocca il banner!	de	Uralte Drachen mit unvergleichlicher Macht! ★ Tippe auf das Banner!	es	¡Dragones antiguos de un poder inigualable! ★ ¡Toca para saber más!
20210917	1100	20210920	1100	100800	999999	0	0	1	1	611	150	0	4216	0	0	6970	0	2500	0	500	1	30	0	New Hero LILIN joins the fight to crush the Aku! ★ Tap for more info!	4	fr	Le nouveau héros LILIN vient combattre les Akus ! ★ Touche pour plus d’infos !	it	LILIN vuole contribuire a distruggere gli Aku! ★ Tocca per saperne di più!	de	Die neue Heldin LILIN ist da, um die Aku zu besiegen! ★ Tippe für mehr Info!	es	La nueva heroína LILIN se une a la lucha contra los akus. ★ Toca para saber más.
20210917	1100	20210920	1100	100800	999999	0	0	1	2	-1	0	0	0	0	0	0	0	0	0	0	0	0	0		607	150	0	4216	0	0	7000	0	2500	0	500	1	0	0	New heroes appear for summer fun, with 11-Draw Uber Guarantee!	0	4	fr	Nouvelle dame de l’été à découvrir ! ★ Ultra rare garanti sur 11 ouvertures !	it	Ci sono novità tra le Ragazze estive! ★ con unità Ultra sicura su 11 sorteggi!	de	Die Sommermädchen haben ein neues Mitglied! ★ mit 11er-Ziehung-Megagarantie!	es	¡Nuevo miembro de las chicas de verano! ★ ¡Abrir 11 bolas da un megarraro!
20210917	1100	20210920	1100	100800	999999	0	0	1	3	-1	0	0	0	0	0	0	0	0	0	0	0	0	0		-1	0	0	0	0	0	0	0	0	0	0	0	0	0		486	150	0	4216	0	0	7000	0	2500	0	500	1	0	0	Ending Soon: Survive! Mola Mola! Collab Capsules! ★ With 11-Draw Guarantee!	0	0	4	fr	Ending Soon: Survive! Mola Mola! Collab Capsules! ★ With 11-Draw Guarantee!	it	Ending Soon: Survive! Mola Mola! Collab Capsules! ★ With 11-Draw Guarantee!	de	Ending Soon: Survive! Mola Mola! Collab Capsules! ★ With 11-Draw Guarantee!	es	Ending Soon: Survive! Mola Mola! Collab Capsules! ★ With 11-Draw Guarantee!
20210917	1100	20300101	1100	100800	999999	0	0	1	4	-1	0	0	0	0	0	0	0	0	0	0	0	0	0		-1	0	0	0	0	0	0	0	0	0	0	0	0	0		-1	0	0	0	0	0	0	0	0	0	0	0	0	0		616	0	0	0	0	0	0	0	0	0	10000	0	0	0	Get an Uber Rare Cat!! 100% Uber drop Rate in the PLATINUM CAPSULES!	0	0	0	4	fr	Obtiens un ultra rare ! 100 % de chances avec les Chapsules platine !	it	Ottieni un gatto ultra raro! 100% possibilità di Ultra nelle CAPSULE PLATINO!	de	Hol dir eine megaseltene Katze!! 100-%-Chance in den PLATINKAPSELN!	es	¡Gana un gato megarraro! Garantizado en las BOLAS DE PLATINO.
20210917	1100	20211001	000	100800	999999	0	0	0	2	-1	0	0	0	0	0	0	0	0	0	0	0	0	0		5	0	0	2	500	0	7000	0	2000	0	500	0	0	0	★ Limited Capsules ★ Pick up extra Catseyes in this special Capsule set!	0	4	fr	★ Chapsules à durée limitée ★ Plus d’œils-de-chat dans ces Chapsules spéciales !	it	★ Capsule limitate ★ Ottieni Occhio di gatto in questo speciale set capsule!	de	★ Limitierte Kapseln ★ Hol dir zusätzliche Katzenaugen durch dieses Kapselset!	es	★ Bolas exclusivas ★ ¡Consigue más gatojos en esta serie especial de bolas!
20210920	1100	20210923	1100	100800	999999	0	0	1	1	615	150	0	0	0	0	6500	0	2600	0	900	0	0	0	All the Ubers are gathered for EPICFEST, with higher drop rates!	4	fr	Tous les ultra rares sont là pour la Méga-fête, taux d’obt. plus élevés !	it	Gli Ultra sono al FESTIVAL EPICO, con maggiori probabilità di ottenerli!	de	Alle Megaseltenen versammeln sich zum epischen Fest mit höheren Chancen!	es	¡Llega el Hiperfesti, con más probabilidad de conseguir megarraros!
20210920	1100	20210923	1100	100800	999999	0	0	1	2	-1	0	0	0	0	0	0	0	0	0	0	0	0	0		623	150	0	0	0	0	6770	0	2500	0	700	0	30	0	Joining forces from Seasonal sets, with higher drop rates!	0	4	fr	En renfort des ensembles saisonniers, avec des taux d’obt. plus élevés !	it	Unisciti alle forze dei set stagionali, con maggiori probabilità di ottenerli!	de	Sie stößt zu den Truppen aus den Saisonsets, mit höheren Chancen!	es	Las series de temporada se unen, ¡con más probabilidad de conseguir unidades!
20210923	1100	20210927	1100	100800	999999	0	0	1	1	594	150	0	0	0	0	7000	0	2500	0	500	0	0	0	New Heroes appear to celebrate 7 Years! ★ Tap banner for info!	4	fr	De nouveaux héros arrivent pour fêter les 7 ans ! ★ Touche pour plus d’infos !	it	Arrivano dei nuovi eroi per festeggiare 7 anni! ★ Tocca il banner!	de	Neue Helden erscheinen, um 7 Jahre zu feiern! ★ Tippe auf das Banner!	es	Llegan nuevos héroes para celebrar los 7 años. ★ ¡Toca para saber más!
20210923	1100	20210925	1100	100800	999999	0	0	1	2	-1	0	0	0	0	0	0	0	0	0	0	0	0	0		487	150	0	0	0	0	6970	0	2500	0	500	0	30	0	For Justice and Cats! The Dark Heroes! ★ Tap banner for info!	0	4	fr	Justice féline, avec les Héros de l’ombre ! ★ Touche pour plus d’infos !	it	Per la giustizia e per i Gatti! Gli Eroi Oscuri! ★ Tocca il banner!	de	Für Gerechtigkeit und Katzen! Dunkle Helden! ★ Tippe auf das Banner!	es	¡Por la justicia felina! ¡Héroes Sombríos! ★ ¡Toca para saber más!
20210925	1100	20210927	1100	100800	999999	0	0	1	2	-1	0	0	0	0	0	0	0	0	0	0	0	0	0		475	150	0	0	0	0	6970	0	2500	0	500	0	30	0	Super-sweet limited Valentine's heroes! ★ Tap banner for info!	0	4	fr	Des héros à croquer pour la Saint-Valentin ! ★ Touche pour plus d’infos !	it	Dolcissimi eroi di San Valentino limitati! ★ Tocca il banner!	de	Supersüße, limitierte Valentinshelden! ★ Tippe auf das Banner!	es	¡Adorables y exclusivos héroes de San Valentín! ★ ¡Toca para saber más!
20210927	1100	20211001	000	100800	999999	0	0	1	1	599	150	0	0	0	0	6970	0	2500	0	500	0	30	0	7 Year Celebration: Ultra Selection! ★ Tap banner for info!	4	fr	Célébration des 7 ans : Ultra rares au choix ! ★ Touche pour plus d’infos !	it	Festeggiamo 7 anni: Selezione Ultra! ★ Tocca il banner!	de	7-Jahres-Feier: Mega-Auswahl! ★ Tippe auf das Banner!	es	Celebración de los 7 años: ¡Selección milagrosa! ★ ¡Toca para saber más!
20210927	1100	20210929	1100	100800	999999	0	0	1	2	-1	0	0	0	0	0	0	0	0	0	0	0	0	0		572	150	0	0	0	0	6970	0	2500	0	500	0	30	0	NEW Iron Legion Hero Mighty Aethur Ltd. ★ Tap banner fo info!	0	4	fr	Artillerie féline avec Chat légendaire top secret ! ★ Touche pour plus d’infos !	it	L'artiglieria definitiva con un Gatto leggendario segreto?! ★ Tocca il banner!	de	Ultimative Katzenartillerie mit geheimer Legende?! ★ Tippe auf das Banner!	es	La mejor artillería felina y... ¿una leyenda secreta? ★ ¡Toca para saber más!
20210929	1100	20211001	000	100800	999999	0	0	1	2	-1	0	0	0	0	0	0	0	0	0	0	0	0	0		427	150	0	0	0	0	6970	0	2500	0	500	0	30	0	Slay your foes with the mighty Vajiras! ★ Tap banner for info!	0	4	fr	Élimine tes ennemis avec les puissants Vajiras ! ★ Touche pour plus d’infos !	it	Uccidi i nemici con il potente Vajiras! ★ Tocca il banner!	de	Vernichte deine Feinde mit dem mächtigen Vajiras! ★ Tippe auf das Banner!	es	¡Derrota enemigos con los poderosos Vajiras! ★ ¡Toca para saber más!
[end]
