[start]
20160101	0	20300101	0	50700	999999	0	0	1	1	0	150	0	0	0	0	7500	0	2000	0	500	0	0	0	여기에서만 얻을 수 있는 레어 캐릭터가 100% 출현!!
20180109	1100	20300101	1100	50700	999999	0	0	0	1	0	0	0	0	10000	0	0	0	0	0	0	0	0	0	
20170101	0	20300101	0	50700	999999	0	0	2	2	0	30	0	0	0	0	7500	0	2000	0	500	0	0	0		0	30	0	0	0	0	7500	0	2000	0	500	0	0	0	
20170101	0	20300101	0	50700	999999	0	0	3	2	0	75	0	0	0	0	7500	0	2000	0	500	0	0	0		0	75	0	0	0	0	7500	0	2000	0	500	0	0	0	
20181013	1100	20300101	1100	70400	999999	0	0	1	4	-1	150	0	0	0	0	7500	0	2000	0	500	0	0	0		-1	150	0	0	0	0	7500	0	2000	0	500	0	0	0		-1	150	0	0	0	0	7500	0	2000	0	500	0	0	0		320	0	0	0	0	0	0	0	0	0	10000	0	0	0	울트라 슈퍼 레어 캐릭터를 반드시 뽑을 수 있는 「플래티넘 뽑기」
20190408	1100	20190422	1100	80300	999999	0	0	1	2	-1	150	0	0	0	0	7500	0	2000	0	500	0	0	0		259	150	0	0	0	0	7000	0	2500	0	500	0	0	0	♡봄 한정♡깜찍한 코스프레 캐릭터가 등장♡자세한 내용은 배너를 클릭♡
20190410	1100	20190412	1100	80300	999999	0	0	1	1	351	150	0	0	0	0	7000	0	2500	0	500	0	0	0	★우주에서 온 개성 넘치는 깜찍한 정령들! 【대정령 엘레멘탈 픽시즈】 등장!★
20190412	1100	20190415	1100	80300	999999	0	0	1	1	361	150	0	0	0	0	6500	0	2600	0	900	0	0	0	★한정 캐릭터 「호걸 달타냥」 참전!★울슈레 확률 지금만 초 UP★
20190415	1100	20190422	1100	80400	999999	0	0	0	2	-1	150	0	0	0	0	7500	0	2000	0	500	0	0	0		3	0	300	0	400	0	2000	0	7000	0	600	0	0	0	☆기간 한정★개다래를 획득할 수 있는 특별 뽑기!☆
20190415	1100	20190417	1100	80400	999999	0	0	1	1	362	150	0	0	0	0	6970	0	2500	0	500	0	30	0	진화로 변모하는 고대의 용사들! 시크릿 참전!?★자세한 내용은 배너를 클릭! 
20190416	1100	20190502	0	80400	999999	0	0	0	3	-1	150	0	0	0	0	7500	0	2000	0	500	0	0	0		-1	150	0	0	0	0	7500	0	2000	0	500	0	0	0		23	0	300	0	0	0	5100	0	3500	0	1400	0	0	0	【기간한정】고양이 드링크와 XP를 GET할 수 있는 특별 뽑기!★ 5월 1일 까지!
20190417	1100	20190419	1100	80400	999999	0	0	1	1	330	150	0	0	0	0	6970	0	2500	0	500	1	30	0	★검은 적에게 강한 바사라즈! 비밀스럽게 무장하고 새롭게 참전?! ★자세한 내용은 배너를 클릭!!
20190417	1100	20190422	1100	80400	999999	0	0	1	2	-1	150	0	0	0	0	7500	0	2000	0	500	0	0	0		259	150	0	0	0	0	7000	0	2500	0	500	1	0	0	♡봄 한정! 깜찍한 이스타 캐릭터 등장! 10+1연속 뽑기 울슈레 1개 이상 확정!♡
20190419	1100	20190422	1100	80400	999999	0	0	1	1	372	150	0	0	0	0	6970	0	2500	0	500	1	30	0	★수수께끼 투성이인 징글 & 귀염 생명체! 시크릿 참전!?★자세한 내용은 배너를 클릭!!★
20190422	1100	20190424	1100	80400	999999	0	0	1	1	333	150	0	0	0	0	6970	0	2500	0	500	0	30	0	파워풀 & 큐트한 사이버학원 소녀전사들! 시크릿 참전!?★자세한 내용은 배너를 클릭! 
20190422	1100	20190429	1100	80400	999999	0	0	0	2	-1	150	0	0	0	0	7500	0	2000	0	500	0	0	0		5	0	0	2	500	0	7000	0	2000	0	500	0	0	0	☆기간 한정★높은 확률로 캣츠아이를 획득할 수 있는 특별 뽑기!☆
20190424	1100	20190426	1100	80400	999999	0	0	1	1	369	150	0	0	0	0	6970	0	2500	0	500	0	30	0	★세계 최강 전력의 냥코 군단! 시크릿 참전!?★자세한 내용은 배너를 클릭! 
20190426	1100	20190429	1100	80400	999999	0	0	1	1	377	150	0	0	0	0	6970	0	2500	0	500	1	30	0	★냥코 군단의 초비밀 병기! 시크릿 참전!?★자세한 내용은 배너를 클릭!!★
20190429	1100	20190501	1100	80400	999999	0	0	1	1	273	150	0	4	0	0	7000	0	2500	0	500	0	0	0	★메탈 적에 강한 【메탈 바스터즈】 등장! 보너스☆UP 뽑기 개최 중!!★
20190501	1100	20190504	1100	80400	999999	0	0	1	1	360	150	0	0	0	0	6500	0	2600	0	900	0	0	0	★강력한 한정 캐릭터 「쾌걸 달타냥」 참전!★울슈레 확률 지금만 초 UP★
20190504	1100	20190506	1100	80400	999999	0	0	1	1	245	150	0	4	0	0	7000	0	2500	0	500	0	0	0	★보너스☆UP 뽑기 개최 중!! 빨간 적에 강한  【레드 바스터즈】  등장!★
[end]
