[start]
20160101	0	20300101	0	50700	999999	0	0	1	1	0	150	0	0	0	0	7500	0	2000	0	500	0	0	0	여기에서만 얻을 수 있는 레어 캐릭터가 100% 출현!!
20180109	1100	20300101	1100	50700	999999	0	0	0	1	0	0	0	0	10000	0	0	0	0	0	0	0	0	0	
20170101	0	20300101	0	50700	999999	0	0	2	2	0	30	0	0	0	0	7500	0	2000	0	500	0	0	0		0	30	0	0	0	0	7500	0	2000	0	500	0	0	0	
20170101	0	20300101	0	50700	999999	0	0	3	2	0	75	0	0	0	0	7500	0	2000	0	500	0	0	0		0	75	0	0	0	0	7500	0	2000	0	500	0	0	0	
20181013	1100	20300101	1100	70400	999999	0	0	1	4	-1	150	0	0	0	0	7500	0	2000	0	500	0	0	0		-1	150	0	0	0	0	7500	0	2000	0	500	0	0	0		-1	150	0	0	0	0	7500	0	2000	0	500	0	0	0		320	0	0	0	0	0	0	0	0	0	10000	0	0	0	울트라 슈퍼 레어 캐릭터를 반드시 뽑을 수 있는 「플래티넘 뽑기」
20191012	1100	20300101	1100	80900	999999	0	0	1	4	-1	150	0	0	0	0	7500	0	2000	0	500	0	0	0		-1	150	0	0	0	0	7500	0	2000	0	500	0	0	0		-1	150	0	0	0	0	7500	0	2000	0	500	0	0	0		401	0	0	0	0	0	0	0	0	0	10000	0	0	0	울트라 슈퍼 레어 캐릭터를 반드시 뽑을 수 있는 「플래티넘 뽑기」
20191015	1100	20191018	1100	80900	999999	0	0	1	1	384	150	0	0	0	0	6970	0	2500	0	500	0	30	0	★정의와 어둠 두 가지 능력을 가진 구세주! 시크릿 참전!?★자세한 내용은 배너를 클릭!!★
20191016	1100	20191102	0	80900	999999	0	0	0	4	-1	150	0	0	0	0	7500	0	2000	0	500	0	0	0		-1	150	0	0	0	0	7500	0	2000	0	500	0	0	0		-1	150	0	0	0	0	7500	0	2000	0	500	0	0	0		33	0	300	0	0	0	5100	0	3500	0	1400	0	0	0	【기간한정】고양이 드링크와 XP를 GET할 수 있는 특별 뽑기!★ 11월 1일 까지!
20191018	1100	20191021	1100	80900	999999	0	0	1	1	400	150	0	0	0	0	6500	0	2600	0	900	0	0	0	★한정 캐릭터 「호걸 달타냥」 참전!★울슈레 확률 지금만 초 UP★
20191018	1100	20191101	1100	80900	999999	0	0	1	2	-1	0	0	0	0	0	0	0	0	0	0	0	0	0		257	150	0	0	0	0	7000	0	2500	0	500	0	0	0	★할로윈 한정! 큐♡트한 코스프레 캐릭터 GET 찬스!★
20191021	1100	20191023	1100	80900	999999	0	0	1	1	373	150	0	0	0	0	6970	0	2500	0	500	0	30	0	★수수께끼 투성이인 징글 & 귀염 생명체! 시크릿 참전!?★자세한 내용은 배너를 클릭!!★
20191023	1100	20191025	1100	80900	999999	0	0	1	1	370	150	0	0	0	0	6970	0	2500	0	500	0	30	0	★세계 최강 전력의 냥코 군단! 시크릿 참전!?★자세한 내용은 배너를 클릭! 
20191025	1100	20191027	1100	80900	999999	0	0	1	1	378	150	0	0	0	0	6970	0	2500	0	500	0	30	0	★냥코 군단의 초비밀 병기! 시크릿 참전!?★자세한 내용은 배너를 클릭!!★
20191027	1100	20191029	1100	80900	999999	0	0	1	1	364	150	0	0	0	0	6970	0	2500	0	500	0	30	0	진화로 변모하는 고대의 용사들! 시크릿 참전!?★자세한 내용은 배너를 클릭! 
20191029	1100	20191101	1100	80900	999999	0	0	1	1	404	150	0	0	0	0	6970	0	2500	0	500	1	30	0	♡새롭게 멜슈가 참전! 파워풀하고 큐♡트한 소녀들!★자세한 내용은 배너를 클릭!♡ 
20191029	1100	20191101	1100	80900	999999	0	0	1	2	-1	0	0	0	0	0	0	0	0	0	0	0	0	0		257	150	0	0	0	0	7000	0	2500	0	500	1	0	0	★10+1연속 뽑기 울슈레 1개 확정! 할로윈 한정 큐♡트한 코스프레 캐릭터 GET 찬스!★
20191029	1100	20300101	1100	80900	999999	0	0	1	4	-1	0	0	0	0	0	0	0	0	0	0	0	0	0		-1	0	0	0	0	0	0	0	0	0	0	0	0	0		-1	0	0	0	0	0	0	0	0	0	0	0	0	0		407	0	0	0	0	0	0	0	0	0	10000	0	0	0	울트라 슈퍼 레어 캐릭터를 반드시 뽑을 수 있는 「플래티넘 뽑기」
[end]
