[start]
20160101	0	20300101	0	50700	999999	0	0	1	1	0	150	0	0	0	0	7500	0	2000	0	500	0	0	0	여기에서만 얻을 수 있는 레어 캐릭터가 100% 출현!!
20180109	1100	20300101	1100	50700	999999	0	0	0	1	0	0	0	0	10000	0	0	0	0	0	0	0	0	0	
20170101	0	20300101	0	80200	999999	0	0	2	3	0	30	0	0	0	0	7500	0	2000	0	500	0	0	0		0	30	0	0	0	0	7500	0	2000	0	500	0	0	0		0	30	0	0	0	0	7500	0	2000	0	500	0	0	0	
20170101	0	20300101	0	80200	999999	0	0	3	3	0	75	0	0	0	0	7500	0	2000	0	500	0	0	0		0	75	0	0	0	0	7500	0	2000	0	500	0	0	0		0	75	0	0	0	0	7500	0	2000	0	500	0	0	0	
20200807	1100	20300101	1100	90700	999999	0	0	1	4	-1	0	0	0	0	0	0	0	0	0	0	0	0	0		-1	0	0	0	0	0	0	0	0	0	0	0	0	0		-1	0	0	0	0	0	0	0	0	0	0	0	0	0		522	0	0	0	0	0	0	0	0	0	10000	0	0	0	울트라 슈퍼 레어 캐릭터를 반드시 뽑을 수 있는 「플래티넘 뽑기」
20200816	1100	20200902	0	90700	999999	0	0	0	4	-1	0	0	0	0	0	0	0	0	0	0	0	0	0		-1	0	0	0	0	0	0	0	0	0	0	0	0	0		-1	0	0	0	0	0	0	0	0	0	0	0	0	0		48	0	300	0	0	0	5100	0	3500	0	1400	0	0	0	【기간한정】고양이 드링크와 XP를 GET할 수 있는 특별 뽑기!★ 9월 1일 까지!
20200824	1100	20200828	1100	90800	999999	0	0	0	3	-1	0	0	0	0	0	0	0	0	0	0	0	0	0		-1	0	0	0	0	0	0	0	0	0	0	0	0	0		3	0	300	0	400	0	2000	0	7000	0	600	0	0	0	☆기간 한정★개다래를 획득할 수 있는 특별 뽑기!☆
20200824	1100	20200901	0	90800	999999	0	0	0	2	-1	0	0	0	0	0	0	0	0	0	0	0	0	0		49	0	0	0	0	0	7400	0	2100	0	500	0	0	0	【기간 한정】꼬맹이 고양이들을 손에 넣을 수 있는 특별 이벤트 뽑기 등장! (~8/31)
20200824	1100	20200831	1100	90800	999999	0	0	1	1	534	150	0	3992	0	0	7000	0	2500	0	500	0	0	0	신 캐릭터 등장! 개방적인 여름 한정의 캐릭터들을 GET!★자세한 내용은 배너를 클릭!
20200824	1100	20200826	1100	90800	999999	0	0	1	2	-1	0	0	0	0	0	0	0	0	0	0	0	0	0		487	150	0	3992	0	0	6970	0	2500	0	500	0	30	0	매드슈터 사키 참전! 정의와 어둠의 힘을 가진 구세주들!★자세한 내용은 배너를 클릭!
20200826	1100	20200828	1100	90800	999999	0	0	1	2	-1	0	0	0	0	0	0	0	0	0	0	0	0	0		424	150	0	3992	0	0	6970	0	2500	0	500	0	30	0	세계 최강 전력의 냥코 군단!★자세한 내용은 배너를 클릭!
20200828	1100	20200831	1100	90800	999999	0	0	1	2	-1	0	0	0	0	0	0	0	0	0	0	0	0	0		475	150	0	3992	0	0	6970	0	2500	0	500	1	30	0	냥코 월드 최대급 진화! 초고대 전설의 용사들!★자세한 내용은 배너를 클릭!
20200828	1100	20200831	1100	90800	999999	0	0	0	3	-1	0	0	0	0	0	0	0	0	0	0	0	0	0		-1	0	0	0	0	0	0	0	0	0	0	0	0	0		5	0	0	2	500	0	7000	0	2000	0	500	0	0	0	☆기간 한정★높은 확률로 캣츠아이를 획득할 수 있는 특별 뽑기!☆
20200828	1100	20200831	1100	90800	999999	0	0	1	1	534	150	0	3992	0	0	7000	0	2500	0	500	1	0	0	신 캐릭터 등장! 개방적인 여름 한정의 캐릭터들을 GET!★11연속 뽑기 울슈레 확정!
20200831	1100	20200914	1100	90800	999999	0	0	1	1	535	150	0	0	0	0	7000	0	2500	0	500	0	0	0	【기간한정】 신 캐릭터 추가! '하츠네 미쿠' 콜라보 뽑기!★자세한 내용은 배너를 클릭!
20200831	1100	20200902	1100	90800	999999	0	0	1	2	-1	0	0	0	0	0	0	0	0	0	0	0	0	0		497	150	0	0	0	0	6970	0	2500	0	500	0	30	0	명계신 하데스 참전! 냥코 월드의 위대한 신들!★자세한 내용은 배너를 클릭!
20200902	1100	20200904	1100	90800	999999	0	0	1	2	-1	0	0	0	0	0	0	0	0	0	0	0	0	0		448	150	0	0	0	0	6970	0	2500	0	500	0	30	0	★우주에서 온 개성 넘치는 깜찍한 정령들!★시크릿 참전!?★자세한 내용은 배너를 클릭!!★
20200904	1100	20200907	1100	90800	999999	0	0	1	1	520	150	0	0	0	0	6500	0	2600	0	900	0	0	0	강력한 한정 캐릭터 '재앙의 캐슬리' 참전!★울트라 슈퍼 레어 캐릭터 지금만 확률 초 UP!!
20200904	1100	20200914	1100	90800	999999	0	0	1	2	-1	0	0	0	0	0	0	0	0	0	0	0	0	0		535	150	0	0	0	0	7000	0	2500	0	500	0	0	0	【기간한정】 신 캐릭터 추가! '하츠네 미쿠' 콜라보 뽑기!★자세한 내용은 배너를 클릭!
20200907	1100	20200914	1100	90800	999999	0	0	1	1	535	150	0	0	0	0	7000	0	2500	0	500	0	0	0	【기간한정】 신 캐릭터 추가! '하츠네 미쿠' 콜라보 뽑기!★자세한 내용은 배너를 클릭!
20200907	1100	20200909	1100	90800	999999	0	0	1	2	-1	0	0	0	0	0	0	0	0	0	0	0	0	0		427	150	0	0	0	0	6970	0	2500	0	500	0	30	0	★검은 적에 강한 멋진 환수들! 자세한 내용은 배너를 클릭!★
20200909	1100	20200911	1100	90800	999999	0	0	1	2	-1	0	0	0	0	0	0	0	0	0	0	0	0	0		517	150	0	0	0	0	6970	0	2500	0	500	0	30	0	신 캐릭터 ★오이루가★ 참전! 수수께끼 투성이의 생명체들! 자세한 내용은 배너를 클릭!
20200911	1100	20200914	1100	90800	999999	0	0	1	1	535	150	0	0	0	0	7000	0	2500	0	500	1	0	0	【기간한정】 신 캐릭터 추가! '하츠네 미쿠' 콜라보 뽑기!★11연속 뽑기 울슈레 확정!
20200911	1100	20200914	1100	90800	999999	0	0	1	2	-1	0	0	0	0	0	0	0	0	0	0	0	0	0		433	150	0	0	0	0	6970	0	2500	0	500	1	30	0	압도적인 존재감을 내뿜는 강력한 드래곤들!★자세한 내용은 배너를 클릭!
[end]
