[start]
20160101	0	20300101	0	50700	999999	0	0	1	1	0	150	0	0	0	0	7500	0	2000	0	500	0	0	0	여기에서만 얻을 수 있는 레어 캐릭터가 100% 출현!!
20180109	1100	20300101	1100	50700	999999	0	0	0	1	0	0	0	0	10000	0	0	0	0	0	0	0	0	0	
20170101	0	20300101	0	80200	999999	0	0	2	3	0	30	0	0	0	0	7500	0	2000	0	500	0	0	0		0	30	0	0	0	0	7500	0	2000	0	500	0	0	0		0	30	0	0	0	0	7500	0	2000	0	500	0	0	0	
20170101	0	20300101	0	80200	999999	0	0	3	3	0	75	0	0	0	0	7500	0	2000	0	500	0	0	0		0	75	0	0	0	0	7500	0	2000	0	500	0	0	0		0	75	0	0	0	0	7500	0	2000	0	500	0	0	0	
20200320	1100	20300101	1100	90300	999999	0	0	1	4	-1	0	0	0	0	0	0	0	0	0	0	0	0	0		-1	0	0	0	0	0	0	0	0	0	0	0	0	0		-1	0	0	0	0	0	0	0	0	0	0	0	0	0		492	0	0	0	0	0	0	0	0	0	10000	0	0	0	울트라 슈퍼 레어 캐릭터를 반드시 뽑을 수 있는 「플래티넘 뽑기」
20200413	1100	20200427	1100	90400	999999	0	0	1	2	-1	0	0	0	0	0	0	0	0	0	0	0	0	0		502	150	0	0	0	0	7000	0	2500	0	500	0	0	0	♡봄 한정♡깜찍한 코스프레 캐릭터가 등장♡자세한 내용은 배너를 클릭♡
20200415	1100	20200417	1100	90400	999999	0	0	1	1	430	150	0	0	0	0	6970	0	2500	0	500	0	30	0	♡파워풀&큐트한 소녀들♡자세한 내용은 배너를 클릭♡
20200416	1100	20200502	0	90400	999999	0	0	0	4	-1	0	0	0	0	0	0	0	0	0	0	0	0	0		-1	0	0	0	0	0	0	0	0	0	0	0	0	0		-1	0	0	0	0	0	0	0	0	0	0	0	0	0		42	0	300	0	0	0	5100	0	3500	0	1400	0	0	0	【기간한정】고양이 드링크와 XP를 GET할 수 있는 특별 뽑기!★ 5월 1일 까지!
20200417	1100	20200420	1100	90400	999999	0	0	1	1	491	150	0	0	0	0	6500	0	2600	0	900	0	0	0	★한정 캐릭터 「호걸 달타냥」 참전!★울슈레 확률 지금만 초 UP★
20200420	1100	20200422	1100	90400	999999	0	0	1	1	487	150	0	0	0	0	6970	0	2500	0	500	0	30	0	매드슈터 사키 참전! 정의와 어둠의 힘을 가진 구세주들!★자세한 내용은 배너를 클릭!
20200422	1100	20200424	1100	90400	999999	0	0	1	1	433	150	0	0	0	0	6970	0	2500	0	500	0	30	0	압도적인 존재감을 내뿜는 강력한 드래곤들!★자세한 내용은 배너를 클릭!
20200424	1100	20200427	1100	90400	999999	0	0	1	1	497	150	0	0	0	0	6970	0	2500	0	500	1	30	0	명계신 하데스 참전! 냥코 월드의 위대한 신들!★자세한 내용은 배너를 클릭!
20200424	1100	20300101	1100	90400	999999	0	0	1	4	-1	0	0	0	0	0	0	0	0	0	0	0	0	0		-1	0	0	0	0	0	0	0	0	0	0	0	0	0		-1	0	0	0	0	0	0	0	0	0	0	0	0	0		504	0	0	0	0	0	0	0	0	0	10000	0	0	0	울트라 슈퍼 레어 캐릭터를 반드시 뽑을 수 있는 「플래티넘 뽑기」
20200424	1100	20200427	1100	90400	999999	0	0	1	2	-1	0	0	0	0	0	0	0	0	0	0	0	0	0		502	150	0	0	0	0	7000	0	2500	0	500	1	0	0	♡봄 한정! 깜찍한 이스타 캐릭터 등장! 10+1연속 뽑기 울슈레 1개 이상 확정!♡
20200427	1100	20200429	1100	90400	999999	0	0	1	1	424	150	0	0	0	0	6970	0	2500	0	500	0	30	0	세계 최강 전력의 냥코 군단!★자세한 내용은 배너를 클릭!
20200429	1100	20200501	1100	90400	999999	0	0	1	1	475	150	0	0	0	0	6970	0	2500	0	500	0	30	0	냥코 월드 최대급 진화! 초고대 전설의 용사들!★자세한 내용은 배너를 클릭!
[end]
