[start]
20180109	1100	20300101	1100	50700	999999	0	0	0	1	0	0	0	0	10000	0	0	0	0	0	0	0	0	0	
20160101	0	20300101	0	50700	999999	0	0	1	1	0	150	0	0	0	0	7500	0	2000	0	500	0	0	0	只有從這個轉蛋才能拿到的限定角色等著你喔！
20170101	0	20300101	0	80200	999999	0	0	2	3	0	30	0	0	0	0	7500	0	2000	0	500	0	0	0		0	30	0	0	0	0	7500	0	2000	0	500	0	0	0		0	30	0	0	0	0	7500	0	2000	0	500	0	0	0	
20170101	0	20300101	0	80200	999999	0	0	3	3	0	75	0	0	0	0	7500	0	2000	0	500	0	0	0		0	75	0	0	0	0	7500	0	2000	0	500	0	0	0		0	75	0	0	0	0	7500	0	2000	0	500	0	0	0	
20200424	1100	20300101	1100	90400	999999	0	0	1	4	-1	0	0	0	0	0	0	0	0	0	0	0	0	0		-1	0	0	0	0	0	0	0	0	0	0	0	0	0		-1	0	0	0	0	0	0	0	0	0	0	0	0	0		504	0	0	0	0	0	0	0	0	0	10000	0	0	0	必出超激稀有角色的白金轉蛋！快來獲得心儀的貓咪吧！
20200616	1100	20200702	0	90500	999999	0	0	0	4	-1	0	0	0	0	0	0	0	0	0	0	0	0	0		-1	0	0	0	0	0	0	0	0	0	0	0	0	0		-1	0	0	0	0	0	0	0	0	0	0	0	0	0		44	0	300	0	0	0	5100	0	3500	0	1400	0	0	0	限時開放★能夠獲得喵力達與XP的特別轉蛋！★7月1日為止！
20200629	1100	20200714	0	90600	999999	0	0	0	3	-1	0	0	0	0	0	0	0	0	0	0	0	0	0		-1	0	0	0	0	0	0	0	0	0	0	0	0	0		47	0	0	0	0	0	7400	0	2100	0	500	0	0	0	限時開放！收集小小貓咪的好機會！★開放到2020年7月13日！
20200629	1100	20200701	1100	90600	999999	0	0	1	1	475	150	0	3960	0	0	6970	0	2500	0	500	0	30	0	貓咪世界最大級的驚人進化樣貌之古代勇者們！★點圖確認詳細吧!!
20200701	1100	20200703	1100	90600	999999	0	0	1	1	448	150	0	3960	0	0	6970	0	2500	0	500	0	30	0	來自宇宙盡頭的各種精靈們！還有新神秘角色！？★點圖可以看詳細內容喔！
20200703	1100	20200706	1100	90600	999999	0	0	1	1	500	150	0	3960	0	0	6500	0	2600	0	900	0	0	0	超強戰力角色「災難少女凱斯莉」參戰！★超激稀有出現率只有現在上升中！
20200706	1100	20200708	1100	90600	999999	0	0	1	1	421	150	0	0	0	0	6970	0	2500	0	500	1	30	0	噁心又可愛的神秘生物！神秘角色新登場！？★點圖可以看詳細內容喔！
20200708	1100	20200710	1100	90600	999999	0	0	1	1	427	150	0	0	0	0	6970	0	2500	0	500	1	30	0	對上黑敵能力大爆發！有強大效果的戰國武將們！★點圖確認詳細吧！！
20200710	1100	20200713	1100	90600	999999	0	0	1	1	506	150	0	0	0	0	6970	0	2500	0	500	1	30	0	異世界召喚來的快樂美少女們！隱藏版美少女也參戰！★點圖確認詳細吧！！
20200713	1100	20200715	1100	90600	999999	0	0	1	1	445	150	0	0	0	0	6970	0	2500	0	500	1	30	0	貓咪軍團珍藏的超級武器！神秘角色新登場！？★點圖可以看詳細內容喔！
20200715	1100	20200717	1100	90600	999999	0	0	1	1	430	150	0	0	0	0	6970	0	2500	0	500	1	30	0	打倒阻礙的敵人！戰鬥力十足又可愛的電腦少女們！★點圖可看詳細內容！
20200716	1100	20200802	000	90600	999999	0	0	0	4	-1	0	0	0	0	0	0	0	0	0	0	0	0	0		-1	0	0	0	0	0	0	0	0	0	0	0	0	0		-1	0	0	0	0	0	0	0	0	0	0	0	0	0		46	0	300	0	0	0	5100	0	3500	0	1400	0	0	0	限時開放★能夠獲得喵力達與XP的特別轉蛋！★8月1日為止！
[end]
