[start]
20180109	1100	20300101	1100	50700	999999	0	0	0	1	0	0	0	0	10000	0	0	0	0	0	0	0	0	0	
20170101	0	20300101	0	80200	999999	0	0	2	3	0	30	0	0	0	0	7500	0	2000	0	500	0	0	0		0	30	0	0	0	0	7500	0	2000	0	500	0	0	0		0	30	0	0	0	0	7500	0	2000	0	500	0	0	0	
20170101	0	20300101	0	80200	999999	0	0	3	3	0	75	0	0	0	0	7500	0	2000	0	500	0	0	0		0	75	0	0	0	0	7500	0	2000	0	500	0	0	0		0	75	0	0	0	0	7500	0	2000	0	500	0	0	0	
20201009	1100	20300101	1100	90900	999999	0	0	1	4	-1	0	0	0	0	0	0	0	0	0	0	0	0	0		-1	0	0	0	0	0	0	0	0	0	0	0	0	0		-1	0	0	0	0	0	0	0	0	0	0	0	0	0		525	0	0	0	0	0	0	0	0	0	10000	0	0	0	必出超激稀有角色的白金轉蛋！快來獲得心儀的貓咪吧！
20201113	1100	20300101	1100	91000	999999	0	0	1	4	-1	0	0	0	0	0	0	0	0	0	0	0	0	0		-1	0	0	0	0	0	0	0	0	0	0	0	0	0		-1	0	0	0	0	0	0	0	0	0	0	0	0	0		543	0	0	0	0	0	0	0	0	0	10000	0	0	0	必出超激稀有角色的白金轉蛋！快來獲得心儀的貓咪吧！
20201216	1100	20210102	0	100000	999999	0	0	0	4	-1	0	0	0	0	0	0	0	0	0	0	0	0	0		-1	0	0	0	0	0	0	0	0	0	0	0	0	0		-1	0	0	0	0	0	0	0	0	0	0	0	0	0		55	0	300	0	0	0	5100	0	3500	0	1400	0	0	0	限時開放★能夠獲得喵力達與XP的特別轉蛋！★1月1日為止！
20201216	1100	20201218	1100	100000	999999	0	0	1	2	-1	0	0	0	0	0	0	0	0	0	0	0	0	0		433	150	0	0	0	0	6970	0	2500	0	500	0	30	0	展現壓倒性的存在感，快點入手強力的龍皇吧!★點圖確認詳細吧!!
20201218	1100	20201221	1100	100000	999999	0	0	1	1	542	150	0	0	0	0	6500	0	2600	0	900	0	0	0	超激稀有角色齊聚一堂!!★超激稀有出現率大增的「特級貓咪祭」進行中!!
20201221	1100	20201228	1100	100100	999999	0	0	1	1	565	150	0	0	0	0	7000	0	2500	0	500	0	0	0	追加新角色！快來入手聖誕節限定角色！★點圖可以確認詳細喔!
20201221	1100	20201223	1100	100100	999999	0	0	1	2	-1	0	0	0	0	0	0	0	0	0	0	0	0	0		540	150	0	0	0	0	6970	0	2500	0	500	0	30	0	新角色「石精靈滾瓦」參戰！有個性又快樂的精靈！★點圖確認詳細吧!!
20201223	1100	20201225	1100	100100	999999	0	0	1	2	-1	0	0	0	0	0	0	0	0	0	0	0	0	0		508	150	0	0	0	0	6970	0	2500	0	500	0	30	0	異世界召喚來的快樂美少女們！隱藏版美少女也參戰！★點圖確認詳細吧！！
[end]
